{
	"formatID":4,
	"deviceID": 3,
	"data": [{
		"background":"assets/img/imageflow.jpg",
		"instruct":"assets/img/asset1.png",
        "overlay":"assets/img/overlay_portrait.png",
        "overlay_ls":"assets/img/overlay_landscape.png",
		"url":"https://airtory.com",
        "socialBlock": false,
        "socialPos": "Top-Left",
        "tweet": "Tweet this",
        "fb": "https://www.airtory.com"
	}]
}