{
	"formatID": 8,
    "deviceID": 3,
    "data":[{
		"back":"assets/img/back.png",
		"front":"assets/img/overlay.png",
        "back_ls":"assets/img/back_landscape.png",
        "front_ls":"assets/img/overlay_landscape.png",
		"url":"https://airtory.com"
	}]
}